simple_examples/Alarm_clock/simulation/qsim/alarm_clock_entity.msim.vcd
$comment
	File created using the following command:
		vcd file alarm_clock_entity.msim.vcd -direction
$end
$date
	Wed May 31 00:57:59 2023
$end
$version
	ModelSim Version 10.1d
$end
$timescale
	1ps
$end
$scope module clock_module_vlg_vec_tst $end
$var reg 1 ! clk_in $end
$var wire 1 " clk_out $end
$var wire 1 # sampler $end
$scope module i1 $end
$var wire 1 $ gnd $end
$var wire 1 % vcc $end
$var wire 1 & unknown $end
$var tri1 1 ' devclrn $end
$var tri1 1 ( devpor $end
$var tri1 1 ) devoe $end
$var wire 1 * clk_out~output_o $end
$var wire 1 + clk_in~input_o $end
$var wire 1 , Add0~81_sumout $end
$var wire 1 - Add0~82 $end
$var wire 1 . Add0~85_sumout $end
$var wire 1 / Add0~86 $end
$var wire 1 0 Add0~89_sumout $end
$var wire 1 1 Add0~90 $end
$var wire 1 2 Add0~93_sumout $end
$var wire 1 3 Add0~94 $end
$var wire 1 4 Add0~97_sumout $end
$var wire 1 5 Add0~98 $end
$var wire 1 6 Add0~101_sumout $end
$var wire 1 7 Add0~102 $end
$var wire 1 8 Add0~105_sumout $end
$var wire 1 9 Add0~106 $end
$var wire 1 : Add0~109_sumout $end
$var wire 1 ; Add0~110 $end
$var wire 1 < Add0~113_sumout $end
$var wire 1 = Add0~114 $end
$var wire 1 > Add0~117_sumout $end
$var wire 1 ? Add0~118 $end
$var wire 1 @ Add0~121_sumout $end
$var wire 1 A Add0~122 $end
$var wire 1 B Add0~125_sumout $end
$var wire 1 C Add0~126 $end
$var wire 1 D Add0~57_sumout $end
$var wire 1 E Add0~58 $end
$var wire 1 F Add0~61_sumout $end
$var wire 1 G Add0~62 $end
$var wire 1 H Add0~65_sumout $end
$var wire 1 I Add0~66 $end
$var wire 1 J Add0~69_sumout $end
$var wire 1 K Add0~70 $end
$var wire 1 L Add0~73_sumout $end
$var wire 1 M Add0~74 $end
$var wire 1 N Add0~77_sumout $end
$var wire 1 O Add0~78 $end
$var wire 1 P Add0~33_sumout $end
$var wire 1 Q Add0~34 $end
$var wire 1 R Add0~37_sumout $end
$var wire 1 S Add0~38 $end
$var wire 1 T Add0~41_sumout $end
$var wire 1 U Add0~42 $end
$var wire 1 V Add0~45_sumout $end
$var wire 1 W Add0~46 $end
$var wire 1 X Add0~49_sumout $end
$var wire 1 Y Add0~50 $end
$var wire 1 Z Add0~53_sumout $end
$var wire 1 [ Add0~54 $end
$var wire 1 \ Add0~9_sumout $end
$var wire 1 ] Add0~10 $end
$var wire 1 ^ Add0~13_sumout $end
$var wire 1 _ Add0~14 $end
$var wire 1 ` Add0~17_sumout $end
$var wire 1 a Add0~18 $end
$var wire 1 b Add0~21_sumout $end
$var wire 1 c Add0~22 $end
$var wire 1 d Add0~25_sumout $end
$var wire 1 e Add0~26 $end
$var wire 1 f Add0~29_sumout $end
$var wire 1 g Add0~30 $end
$var wire 1 h Add0~1_sumout $end
$var wire 1 i Add0~2 $end
$var wire 1 j Add0~5_sumout $end
$var wire 1 k Equal0~0_combout $end
$var wire 1 l Equal0~1_combout $end
$var wire 1 m Equal0~2_combout $end
$var wire 1 n Equal0~3_combout $end
$var wire 1 o Equal0~4_combout $end
$var wire 1 p Equal0~5_combout $end
$var wire 1 q Equal0~6_combout $end
$var wire 1 r clk_out~0_combout $end
$var wire 1 s clk_out~reg0_q $end
$var wire 1 t counter_reg [31] $end
$var wire 1 u counter_reg [30] $end
$var wire 1 v counter_reg [29] $end
$var wire 1 w counter_reg [28] $end
$var wire 1 x counter_reg [27] $end
$var wire 1 y counter_reg [26] $end
$var wire 1 z counter_reg [25] $end
$var wire 1 { counter_reg [24] $end
$var wire 1 | counter_reg [23] $end
$var wire 1 } counter_reg [22] $end
$var wire 1 ~ counter_reg [21] $end
$var wire 1 !! counter_reg [20] $end
$var wire 1 "! counter_reg [19] $end
$var wire 1 #! counter_reg [18] $end
$var wire 1 $! counter_reg [17] $end
$var wire 1 %! counter_reg [16] $end
$var wire 1 &! counter_reg [15] $end
$var wire 1 '! counter_reg [14] $end
$var wire 1 (! counter_reg [13] $end
$var wire 1 )! counter_reg [12] $end
$var wire 1 *! counter_reg [11] $end
$var wire 1 +! counter_reg [10] $end
$var wire 1 ,! counter_reg [9] $end
$var wire 1 -! counter_reg [8] $end
$var wire 1 .! counter_reg [7] $end
$var wire 1 /! counter_reg [6] $end
$var wire 1 0! counter_reg [5] $end
$var wire 1 1! counter_reg [4] $end
$var wire 1 2! counter_reg [3] $end
$var wire 1 3! counter_reg [2] $end
$var wire 1 4! counter_reg [1] $end
$var wire 1 5! counter_reg [0] $end
$upscope $end
$upscope $end
$enddefinitions $end
#0
$dumpvars
0!
0"
x#
0$
1%
x&
1'
1(
1)
0*
0+
1,
0-
0.
0/
00
01
02
03
04
05
06
07
08
09
0:
0;
0<
0=
0>
0?
0@
0A
0B
0C
0D
0E
0F
0G
0H
0I
0J
0K
0L
0M
0N
0O
0P
0Q
0R
0S
0T
0U
0V
0W
0X
0Y
0Z
0[
0\
0]
0^
0_
0`
0a
0b
0c
0d
0e
0f
0g
0h
0i
0j
1k
1l
1m
1n
0o
1p
0q
0r
0s
05!
04!
03!
02!
01!
00!
0/!
0.!
0-!
0,!
0+!
0*!
0)!
0(!
0'!
0&!
0%!
0$!
0#!
0"!
0!!
0~
0}
0|
0{
0z
0y
0x
0w
0v
0u
0t
$end
#5000
1!
1+
0#
15!
1-
0,
1.
#10000
0!
0+
1#
#15000
1!
1+
0#
14!
05!
1/
0.
0-
1,
10
0/
1.
00
#20000
0!
0+
1#
#25000
1!
1+
0#
15!
1-
0,
1/
0.
10
#30000
0!
0+
1#
#35000
1!
1+
0#
13!
04!
05!
11
00
0/
1.
0-
1,
12
01
10
0.
02
#40000
0!
0+
1#
#45000
1!
1+
0#
15!
1-
0,
1o
1.
1q
1r
#50000
0!
0+
1#
#55000
1!
1+
0#
03!
05!
1s
00
0o
0-
1,
0r
1*
1"
0.
0q
1r
#60000
0!
0+
1#
#65000
1!
1+
0#
15!
1-
0,
1.
#70000
0!
0+
1#
#75000
1!
1+
0#
14!
05!
1/
0.
0-
1,
10
0/
1.
00
#80000
0!
0+
1#
#85000
1!
1+
0#
15!
1-
0,
1/
0.
10
#90000
0!
0+
1#
#95000
1!
1+
0#
13!
04!
05!
11
00
0/
1.
0-
1,
12
01
10
0.
02
#100000
0!
0+
1#
#105000
1!
1+
0#
15!
1-
0,
1o
1.
1q
0r
#110000
0!
0+
1#
#115000
1!
1+
0#
03!
05!
0s
00
0o
0-
1,
1r
0*
0"
0.
0q
0r
#120000
0!
0+
1#
#125000
1!
1+
0#
15!
1-
0,
1.
#130000
0!
0+
1#
#135000
1!
1+
0#
14!
05!
1/
0.
0-
1,
10
0/
1.
00
#140000
0!
0+
1#
#145000
1!
1+
0#
15!
1-
0,
1/
0.
10
#150000
0!
0+
1#
#155000
1!
1+
0#
13!
04!
05!
11
00
0/
1.
0-
1,
12
01
10
0.
02
#160000
0!
0+
1#
#165000
1!
1+
0#
15!
1-
0,
1o
1.
1q
1r
#170000
0!
0+
1#
#175000
1!
1+
0#
03!
05!
1s
00
0o
0-
1,
0r
1*
1"
0.
0q
1r
#180000
0!
0+
1#
#185000
1!
1+
0#
15!
1-
0,
1.
#190000
0!
0+
1#
#195000
1!
1+
0#
14!
05!
1/
0.
0-
1,
10
0/
1.
00
#200000
0!
0+
1#
#205000
1!
1+
0#
15!
1-
0,
1/
0.
10
#210000
0!
0+
1#
#215000
1!
1+
0#
13!
04!
05!
11
00
0/
1.
0-
1,
12
01
10
0.
02
#220000
0!
0+
1#
#225000
1!
1+
0#
15!
1-
0,
1o
1.
1q
0r
#230000
0!
0+
1#
#235000
1!
1+
0#
03!
05!
0s
00
0o
0-
1,
1r
0*
0"
0.
0q
0r
#240000
0!
0+
1#
#245000
1!
1+
0#
15!
1-
0,
1.
#250000
0!
0+
1#
#255000
1!
1+
0#
14!
05!
1/
0.
0-
1,
10
0/
1.
00
#260000
0!
0+
1#
#265000
1!
1+
0#
15!
1-
0,
1/
0.
10
#270000
0!
0+
1#
#275000
1!
1+
0#
13!
04!
05!
11
00
0/
1.
0-
1,
12
01
10
0.
02
#280000
0!
0+
1#
#285000
1!
1+
0#
15!
1-
0,
1o
1.
1q
1r
#290000
0!
0+
1#
#295000
1!
1+
0#
03!
05!
1s
00
0o
0-
1,
0r
1*
1"
0.
0q
1r
#300000
0!
0+
1#
#305000
1!
1+
0#
15!
1-
0,
1.
#310000
0!
0+
1#
#315000
1!
1+
0#
14!
05!
1/
0.
0-
1,
10
0/
1.
00
#320000
0!
0+
1#
#325000
1!
1+
0#
15!
1-
0,
1/
0.
10
#330000
0!
0+
1#
#335000
1!
1+
0#
13!
04!
05!
11
00
0/
1.
0-
1,
12
01
10
0.
02
#340000
0!
0+
1#
#345000
1!
1+
0#
15!
1-
0,
1o
1.
1q
0r
#350000
0!
0+
1#
#355000
1!
1+
0#
03!
05!
0s
00
0o
0-
1,
1r
0*
0"
0.
0q
0r
#360000
0!
0+
1#
#365000
1!
1+
0#
15!
1-
0,
1.
#370000
0!
0+
1#
#375000
1!
1+
0#
14!
05!
1/
0.
0-
1,
10
0/
1.
00
#380000
0!
0+
1#
#385000
1!
1+
0#
15!
1-
0,
1/
0.
10
#390000
0!
0+
1#
#395000
1!
1+
0#
13!
04!
05!
11
00
0/
1.
0-
1,
12
01
10
0.
02
#400000
0!
0+
1#
#405000
1!
1+
0#
15!
1-
0,
1o
1.
1q
1r
#410000
0!
0+
1#
#415000
1!
1+
0#
03!
05!
1s
00
0o
0-
1,
0r
1*
1"
0.
0q
1r
#420000
0!
0+
1#
#425000
1!
1+
0#
15!
1-
0,
1.
#430000
0!
0+
1#
#435000
1!
1+
0#
14!
05!
1/
0.
0-
1,
10
0/
1.
00
#440000
0!
0+
1#
#445000
1!
1+
0#
15!
1-
0,
1/
0.
10
#450000
0!
0+
1#
#455000
1!
1+
0#
13!
04!
05!
11
00
0/
1.
0-
1,
12
01
10
0.
02
#460000
0!
0+
1#
#465000
1!
1+
0#
15!
1-
0,
1o
1.
1q
0r
#470000
0!
0+
1#
#475000
1!
1+
0#
03!
05!
0s
00
0o
0-
1,
1r
0*
0"
0.
0q
0r
#480000
0!
0+
1#
#485000
1!
1+
0#
15!
1-
0,
1.
#490000
0!
0+
1#
#495000
1!
1+
0#
14!
05!
1/
0.
0-
1,
10
0/
1.
00
#500000
0!
0+
1#
#505000
1!
1+
0#
15!
1-
0,
1/
0.
10
#510000
0!
0+
1#
#515000
1!
1+
0#
13!
04!
05!
11
00
0/
1.
0-
1,
12
01
10
0.
02
#520000
0!
0+
1#
#525000
1!
1+
0#
15!
1-
0,
1o
1.
1q
1r
#530000
0!
0+
1#
#535000
1!
1+
0#
03!
05!
1s
00
0o
0-
1,
0r
1*
1"
0.
0q
1r
#540000
0!
0+
1#
#545000
1!
1+
0#
15!
1-
0,
1.
#550000
0!
0+
1#
#555000
1!
1+
0#
14!
05!
1/
0.
0-
1,
10
0/
1.
00
#560000
0!
0+
1#
#565000
1!
1+
0#
15!
1-
0,
1/
0.
10
#570000
0!
0+
1#
#575000
1!
1+
0#
13!
04!
05!
11
00
0/
1.
0-
1,
12
01
10
0.
02
#580000
0!
0+
1#
#585000
1!
1+
0#
15!
1-
0,
1o
1.
1q
0r
#590000
0!
0+
1#
#595000
1!
1+
0#
03!
05!
0s
00
0o
0-
1,
1r
0*
0"
0.
0q
0r
#600000
0!
0+
1#
#605000
1!
1+
0#
15!
1-
0,
1.
#610000
0!
0+
1#
#615000
1!
1+
0#
14!
05!
1/
0.
0-
1,
10
0/
1.
00
#620000
0!
0+
1#
#625000
1!
1+
0#
15!
1-
0,
1/
0.
10
#630000
0!
0+
1#
#635000
1!
1+
0#
13!
04!
05!
11
00
0/
1.
0-
1,
12
01
10
0.
02
#640000
0!
0+
1#
#645000
1!
1+
0#
15!
1-
0,
1o
1.
1q
1r
#650000
0!
0+
1#
#655000
1!
1+
0#
03!
05!
1s
00
0o
0-
1,
0r
1*
1"
0.
0q
1r
#660000
0!
0+
1#
#665000
1!
1+
0#
15!
1-
0,
1.
#670000
0!
0+
1#
#675000
1!
1+
0#
14!
05!
1/
0.
0-
1,
10
0/
1.
00
#680000
0!
0+
1#
#685000
1!
1+
0#
15!
1-
0,
1/
0.
10
#690000
0!
0+
1#
#695000
1!
1+
0#
13!
04!
05!
11
00
0/
1.
0-
1,
12
01
10
0.
02
#700000
0!
0+
1#
#705000
1!
1+
0#
15!
1-
0,
1o
1.
1q
0r
#710000
0!
0+
1#
#715000
1!
1+
0#
03!
05!
0s
00
0o
0-
1,
1r
0*
0"
0.
0q
0r
#720000
0!
0+
1#
#725000
1!
1+
0#
15!
1-
0,
1.
#730000
0!
0+
1#
#735000
1!
1+
0#
14!
05!
1/
0.
0-
1,
10
0/
1.
00
#740000
0!
0+
1#
#745000
1!
1+
0#
15!
1-
0,
1/
0.
10
#750000
0!
0+
1#
#755000
1!
1+
0#
13!
04!
05!
11
00
0/
1.
0-
1,
12
01
10
0.
02
#760000
0!
0+
1#
#765000
1!
1+
0#
15!
1-
0,
1o
1.
1q
1r
#770000
0!
0+
1#
#775000
1!
1+
0#
03!
05!
1s
00
0o
0-
1,
0r
1*
1"
0.
0q
1r
#780000
0!
0+
1#
#785000
1!
1+
0#
15!
1-
0,
1.
#790000
0!
0+
1#
#795000
1!
1+
0#
14!
05!
1/
0.
0-
1,
10
0/
1.
00
#800000
0!
0+
1#
#805000
1!
1+
0#
15!
1-
0,
1/
0.
10
#810000
0!
0+
1#
#815000
1!
1+
0#
13!
04!
05!
11
00
0/
1.
0-
1,
12
01
10
0.
02
#820000
0!
0+
1#
#825000
1!
1+
0#
15!
1-
0,
1o
1.
1q
0r
#830000
0!
0+
1#
#835000
1!
1+
0#
03!
05!
0s
00
0o
0-
1,
1r
0*
0"
0.
0q
0r
#840000
0!
0+
1#
#845000
1!
1+
0#
15!
1-
0,
1.
#850000
0!
0+
1#
#855000
1!
1+
0#
14!
05!
1/
0.
0-
1,
10
0/
1.
00
#860000
0!
0+
1#
#865000
1!
1+
0#
15!
1-
0,
1/
0.
10
#870000
0!
0+
1#
#875000
1!
1+
0#
13!
04!
05!
11
00
0/
1.
0-
1,
12
01
10
0.
02
#880000
0!
0+
1#
#885000
1!
1+
0#
15!
1-
0,
1o
1.
1q
1r
#890000
0!
0+
1#
#895000
1!
1+
0#
03!
05!
1s
00
0o
0-
1,
0r
1*
1"
0.
0q
1r
#900000
0!
0+
1#
#905000
1!
1+
0#
15!
1-
0,
1.
#910000
0!
0+
1#
#915000
1!
1+
0#
14!
05!
1/
0.
0-
1,
10
0/
1.
00
#920000
0!
0+
1#
#925000
1!
1+
0#
15!
1-
0,
1/
0.
10
#930000
0!
0+
1#
#935000
1!
1+
0#
13!
04!
05!
11
00
0/
1.
0-
1,
12
01
10
0.
02
#940000
0!
0+
1#
#945000
1!
1+
0#
15!
1-
0,
1o
1.
1q
0r
#950000
0!
0+
1#
#955000
1!
1+
0#
03!
05!
0s
00
0o
0-
1,
1r
0*
0"
0.
0q
0r
#960000
0!
0+
1#
#965000
1!
1+
0#
15!
1-
0,
1.
#970000
0!
0+
1#
#975000
1!
1+
0#
14!
05!
1/
0.
0-
1,
10
0/
1.
00
#980000
0!
0+
1#
#985000
1!
1+
0#
15!
1-
0,
1/
0.
10
#990000
0!
0+
1#
#995000
1!
1+
0#
13!
04!
05!
11
00
0/
1.
0-
1,
12
01
10
0.
02
