VGA_example/VGA_rgb/simulation/qsim/vga_rgb.msim.vcd
$comment
	File created using the following command:
		vcd file vga_rgb.msim.vcd -direction
$end
$date
	Tue Jun 20 23:02:24 2023
$end
$version
	ModelSim Version 10.1d
$end
$timescale
	1ps
$end
$scope module main_vga_module_vlg_vec_tst $end
$var reg 1 ! clock_builtin_50MHZ $end
$var wire 1 " blue_8bit [7] $end
$var wire 1 # blue_8bit [6] $end
$var wire 1 $ blue_8bit [5] $end
$var wire 1 % blue_8bit [4] $end
$var wire 1 & blue_8bit [3] $end
$var wire 1 ' blue_8bit [2] $end
$var wire 1 ( blue_8bit [1] $end
$var wire 1 ) blue_8bit [0] $end
$var wire 1 * clock_out_25MHZ $end
$var wire 1 + green_8bit [7] $end
$var wire 1 , green_8bit [6] $end
$var wire 1 - green_8bit [5] $end
$var wire 1 . green_8bit [4] $end
$var wire 1 / green_8bit [3] $end
$var wire 1 0 green_8bit [2] $end
$var wire 1 1 green_8bit [1] $end
$var wire 1 2 green_8bit [0] $end
$var wire 1 3 h_sync $end
$var wire 1 4 red_8bit [7] $end
$var wire 1 5 red_8bit [6] $end
$var wire 1 6 red_8bit [5] $end
$var wire 1 7 red_8bit [4] $end
$var wire 1 8 red_8bit [3] $end
$var wire 1 9 red_8bit [2] $end
$var wire 1 : red_8bit [1] $end
$var wire 1 ; red_8bit [0] $end
$var wire 1 < v_sync $end
$var wire 1 = sampler $end
$scope module i1 $end
$var wire 1 > gnd $end
$var wire 1 ? vcc $end
$var wire 1 @ unknown $end
$var tri1 1 A devclrn $end
$var tri1 1 B devpor $end
$var tri1 1 C devoe $end
$var wire 1 D ~QUARTUS_CREATED_GND~I_combout $end
$var wire 1 E clock_builtin_50MHZ~input_o $end
$var wire 1 F clock_builtin_50MHZ~inputCLKENA0_outclk $end
$var wire 1 G instance_1|Add0~93_sumout $end
$var wire 1 H instance_1|Add0~6 $end
$var wire 1 I instance_1|Add0~29_sumout $end
$var wire 1 J instance_1|Add0~30 $end
$var wire 1 K instance_1|Add0~25_sumout $end
$var wire 1 L instance_1|Add0~26 $end
$var wire 1 M instance_1|Add0~21_sumout $end
$var wire 1 N instance_1|Add0~22 $end
$var wire 1 O instance_1|Add0~17_sumout $end
$var wire 1 P instance_1|Add0~18 $end
$var wire 1 Q instance_1|Add0~13_sumout $end
$var wire 1 R instance_1|Add0~14 $end
$var wire 1 S instance_1|Add0~9_sumout $end
$var wire 1 T instance_1|Add0~10 $end
$var wire 1 U instance_1|Add0~53_sumout $end
$var wire 1 V instance_1|Add0~54 $end
$var wire 1 W instance_1|Add0~49_sumout $end
$var wire 1 X instance_1|Add0~50 $end
$var wire 1 Y instance_1|Add0~45_sumout $end
$var wire 1 Z instance_1|Add0~46 $end
$var wire 1 [ instance_1|Add0~41_sumout $end
$var wire 1 \ instance_1|Add0~42 $end
$var wire 1 ] instance_1|Add0~37_sumout $end
$var wire 1 ^ instance_1|Add0~38 $end
$var wire 1 _ instance_1|Add0~33_sumout $end
$var wire 1 ` instance_1|Add0~34 $end
$var wire 1 a instance_1|Add0~65_sumout $end
$var wire 1 b instance_1|Add0~66 $end
$var wire 1 c instance_1|Add0~85_sumout $end
$var wire 1 d instance_1|Add0~86 $end
$var wire 1 e instance_1|Add0~81_sumout $end
$var wire 1 f instance_1|Add0~82 $end
$var wire 1 g instance_1|Add0~77_sumout $end
$var wire 1 h instance_1|Add0~78 $end
$var wire 1 i instance_1|Add0~73_sumout $end
$var wire 1 j instance_1|Add0~74 $end
$var wire 1 k instance_1|Add0~69_sumout $end
$var wire 1 l instance_1|Add0~70 $end
$var wire 1 m instance_1|Add0~61_sumout $end
$var wire 1 n instance_1|Add0~62 $end
$var wire 1 o instance_1|Add0~125_sumout $end
$var wire 1 p instance_1|Add0~126 $end
$var wire 1 q instance_1|Add0~121_sumout $end
$var wire 1 r instance_1|Add0~122 $end
$var wire 1 s instance_1|Add0~117_sumout $end
$var wire 1 t instance_1|Add0~118 $end
$var wire 1 u instance_1|Add0~113_sumout $end
$var wire 1 v instance_1|Add0~114 $end
$var wire 1 w instance_1|Add0~109_sumout $end
$var wire 1 x instance_1|Add0~110 $end
$var wire 1 y instance_1|Add0~57_sumout $end
$var wire 1 z instance_1|Add0~58 $end
$var wire 1 { instance_1|Add0~105_sumout $end
$var wire 1 | instance_1|Add0~106 $end
$var wire 1 } instance_1|Add0~101_sumout $end
$var wire 1 ~ instance_1|Add0~102 $end
$var wire 1 !! instance_1|Add0~97_sumout $end
$var wire 1 "! instance_1|Add0~98 $end
$var wire 1 #! instance_1|Add0~1_sumout $end
$var wire 1 $! instance_1|LessThan0~1_combout $end
$var wire 1 %! instance_1|LessThan0~4_combout $end
$var wire 1 &! instance_1|LessThan0~3_combout $end
$var wire 1 '! instance_1|LessThan0~2_combout $end
$var wire 1 (! instance_1|LessThan0~5_combout $end
$var wire 1 )! instance_1|LessThan0~0_combout $end
$var wire 1 *! instance_1|LessThan0~6_combout $end
$var wire 1 +! instance_1|Add0~94 $end
$var wire 1 ,! instance_1|Add0~89_sumout $end
$var wire 1 -! instance_1|Add0~90 $end
$var wire 1 .! instance_1|Add0~5_sumout $end
$var wire 1 /! instance_1|clk_25~0_combout $end
$var wire 1 0! instance_1|clk_25~q $end
$var wire 1 1! instance_2|Add0~33_sumout $end
$var wire 1 2! instance_2|Add0~18 $end
$var wire 1 3! instance_2|Add0~41_sumout $end
$var wire 1 4! instance_2|Add0~42 $end
$var wire 1 5! instance_2|Add0~37_sumout $end
$var wire 1 6! instance_2|Add0~38 $end
$var wire 1 7! instance_2|Add0~9_sumout $end
$var wire 1 8! instance_2|h_count[7]~feeder_combout $end
$var wire 1 9! instance_2|Add0~10 $end
$var wire 1 :! instance_2|Add0~13_sumout $end
$var wire 1 ;! instance_2|h_count[8]~feeder_combout $end
$var wire 1 <! instance_2|h_count[1]~DUPLICATE_q $end
$var wire 1 =! instance_2|h_count[0]~DUPLICATE_q $end
$var wire 1 >! instance_2|LessThan0~2_combout $end
$var wire 1 ?! instance_2|Add0~14 $end
$var wire 1 @! instance_2|Add0~5_sumout $end
$var wire 1 A! instance_2|h_count[9]~feeder_combout $end
$var wire 1 B! instance_2|Add0~6 $end
$var wire 1 C! instance_2|Add0~1_sumout $end
$var wire 1 D! instance_2|h_count[10]~feeder_combout $end
$var wire 1 E! instance_2|LessThan0~1_combout $end
$var wire 1 F! instance_2|Add0~34 $end
$var wire 1 G! instance_2|Add0~21_sumout $end
$var wire 1 H! instance_2|Add0~22 $end
$var wire 1 I! instance_2|Add0~25_sumout $end
$var wire 1 J! instance_2|h_count[2]~feeder_combout $end
$var wire 1 K! instance_2|Add0~26 $end
$var wire 1 L! instance_2|Add0~29_sumout $end
$var wire 1 M! instance_2|Add0~30 $end
$var wire 1 N! instance_2|Add0~17_sumout $end
$var wire 1 O! instance_2|h_count[5]~DUPLICATE_q $end
$var wire 1 P! instance_2|LessThan0~0_combout $end
$var wire 1 Q! instance_2|h_sync~0_combout $end
$var wire 1 R! instance_2|h_sync~1_combout $end
$var wire 1 S! instance_2|h_sync~q $end
$var wire 1 T! instance_2|v_count[0]~0_combout $end
$var wire 1 U! instance_2|Add1~37_sumout $end
$var wire 1 V! instance_2|Add1~38 $end
$var wire 1 W! instance_2|Add1~25_sumout $end
$var wire 1 X! instance_2|Add1~26 $end
$var wire 1 Y! instance_2|Add1~29_sumout $end
$var wire 1 Z! instance_2|Add1~30 $end
$var wire 1 [! instance_2|Add1~33_sumout $end
$var wire 1 \! instance_2|Add1~34 $end
$var wire 1 ]! instance_2|Add1~9_sumout $end
$var wire 1 ^! instance_2|v_count[5]~feeder_combout $end
$var wire 1 _! instance_2|Add1~10 $end
$var wire 1 `! instance_2|Add1~13_sumout $end
$var wire 1 a! instance_2|v_count[6]~feeder_combout $end
$var wire 1 b! instance_2|Add1~14 $end
$var wire 1 c! instance_2|Add1~17_sumout $end
$var wire 1 d! instance_2|Add1~18 $end
$var wire 1 e! instance_2|Add1~21_sumout $end
$var wire 1 f! instance_2|Add1~22 $end
$var wire 1 g! instance_2|Add1~1_sumout $end
$var wire 1 h! instance_2|Add1~2 $end
$var wire 1 i! instance_2|Add1~5_sumout $end
$var wire 1 j! instance_2|v_count[5]~DUPLICATE_q $end
$var wire 1 k! LessThan1~0_combout $end
$var wire 1 l! instance_2|v_sync~0_combout $end
$var wire 1 m! instance_2|v_sync~1_combout $end
$var wire 1 n! instance_2|v_sync~q $end
$var wire 1 o! always0~0_combout $end
$var wire 1 p! always0~1_combout $end
$var wire 1 q! instance_1|counter_value_25MHZ [31] $end
$var wire 1 r! instance_1|counter_value_25MHZ [30] $end
$var wire 1 s! instance_1|counter_value_25MHZ [29] $end
$var wire 1 t! instance_1|counter_value_25MHZ [28] $end
$var wire 1 u! instance_1|counter_value_25MHZ [27] $end
$var wire 1 v! instance_1|counter_value_25MHZ [26] $end
$var wire 1 w! instance_1|counter_value_25MHZ [25] $end
$var wire 1 x! instance_1|counter_value_25MHZ [24] $end
$var wire 1 y! instance_1|counter_value_25MHZ [23] $end
$var wire 1 z! instance_1|counter_value_25MHZ [22] $end
$var wire 1 {! instance_1|counter_value_25MHZ [21] $end
$var wire 1 |! instance_1|counter_value_25MHZ [20] $end
$var wire 1 }! instance_1|counter_value_25MHZ [19] $end
$var wire 1 ~! instance_1|counter_value_25MHZ [18] $end
$var wire 1 !" instance_1|counter_value_25MHZ [17] $end
$var wire 1 "" instance_1|counter_value_25MHZ [16] $end
$var wire 1 #" instance_1|counter_value_25MHZ [15] $end
$var wire 1 $" instance_1|counter_value_25MHZ [14] $end
$var wire 1 %" instance_1|counter_value_25MHZ [13] $end
$var wire 1 &" instance_1|counter_value_25MHZ [12] $end
$var wire 1 '" instance_1|counter_value_25MHZ [11] $end
$var wire 1 (" instance_1|counter_value_25MHZ [10] $end
$var wire 1 )" instance_1|counter_value_25MHZ [9] $end
$var wire 1 *" instance_1|counter_value_25MHZ [8] $end
$var wire 1 +" instance_1|counter_value_25MHZ [7] $end
$var wire 1 ," instance_1|counter_value_25MHZ [6] $end
$var wire 1 -" instance_1|counter_value_25MHZ [5] $end
$var wire 1 ." instance_1|counter_value_25MHZ [4] $end
$var wire 1 /" instance_1|counter_value_25MHZ [3] $end
$var wire 1 0" instance_1|counter_value_25MHZ [2] $end
$var wire 1 1" instance_1|counter_value_25MHZ [1] $end
$var wire 1 2" instance_1|counter_value_25MHZ [0] $end
$var wire 1 3" instance_2|h_count [10] $end
$var wire 1 4" instance_2|h_count [9] $end
$var wire 1 5" instance_2|h_count [8] $end
$var wire 1 6" instance_2|h_count [7] $end
$var wire 1 7" instance_2|h_count [6] $end
$var wire 1 8" instance_2|h_count [5] $end
$var wire 1 9" instance_2|h_count [4] $end
$var wire 1 :" instance_2|h_count [3] $end
$var wire 1 ;" instance_2|h_count [2] $end
$var wire 1 <" instance_2|h_count [1] $end
$var wire 1 =" instance_2|h_count [0] $end
$var wire 1 >" instance_2|v_count [10] $end
$var wire 1 ?" instance_2|v_count [9] $end
$var wire 1 @" instance_2|v_count [8] $end
$var wire 1 A" instance_2|v_count [7] $end
$var wire 1 B" instance_2|v_count [6] $end
$var wire 1 C" instance_2|v_count [5] $end
$var wire 1 D" instance_2|v_count [4] $end
$var wire 1 E" instance_2|v_count [3] $end
$var wire 1 F" instance_2|v_count [2] $end
$var wire 1 G" instance_2|v_count [1] $end
$var wire 1 H" instance_2|v_count [0] $end
$upscope $end
$upscope $end
$enddefinitions $end
#0
$dumpvars
0!
1)
1(
1'
1&
1%
1$
1#
1"
0*
12
11
10
1/
1.
1-
1,
1+
13
1;
1:
19
18
17
16
15
14
1<
x=
0>
1?
x@
1A
1B
1C
0D
0E
0F
1G
0H
0I
0J
0K
0L
0M
0N
0O
0P
0Q
0R
0S
0T
0U
0V
0W
0X
0Y
0Z
0[
0\
0]
0^
0_
0`
0a
0b
0c
0d
0e
0f
0g
0h
0i
0j
0k
0l
0m
0n
0o
0p
0q
0r
0s
0t
0u
0v
0w
0x
0y
0z
0{
0|
0}
0~
0!!
0"!
0#!
1$!
1%!
1&!
1'!
1(!
1)!
0*!
0+!
0,!
0-!
0.!
0/!
00!
11!
02!
03!
04!
05!
06!
07!
08!
09!
0:!
0;!
0<!
0=!
1>!
0?!
0@!
0A!
0B!
0C!
0D!
0E!
0F!
0G!
0H!
0I!
0J!
0K!
0L!
0M!
0N!
0O!
0P!
0Q!
0R!
0S!
1T!
0U!
0V!
0W!
0X!
0Y!
0Z!
0[!
0\!
0]!
0^!
0_!
0`!
0a!
0b!
0c!
0d!
0e!
0f!
0g!
0h!
0i!
0j!
0k!
0l!
0m!
0n!
0o!
1p!
02"
01"
00"
0/"
0."
0-"
0,"
0+"
0*"
0)"
0("
0'"
0&"
0%"
0$"
0#"
0""
0!"
0~!
0}!
0|!
0{!
0z!
0y!
0x!
0w!
0v!
0u!
0t!
0s!
0r!
0q!
0="
0<"
0;"
0:"
09"
08"
07"
06"
05"
04"
03"
0H"
0G"
0F"
0E"
0D"
0C"
0B"
0A"
0@"
0?"
0>"
$end
#500
1!
1E
1F
0=
12"
1+!
0G
0&!
1,!
0(!
1*!
1/!
#1000
0!
0E
0F
1=
#1500
1!
1E
1F
0=
10!
02"
0/!
0+!
1G
1&!
0,!
1(!
0*!
1/!
1="
1=!
1F!
01!
1G!
#2000
0!
0E
0F
1=
#2500
1!
1E
1F
0=
12"
1+!
0G
0&!
1,!
0(!
1*!
0/!
#3000
0!
0E
0F
1=
#3500
1!
1E
1F
0=
00!
02"
1/!
0+!
1G
1&!
0,!
1(!
0*!
0/!
#4000
0!
0E
0F
1=
#4500
1!
1E
1F
0=
12"
1+!
0G
0&!
1,!
0(!
1*!
1/!
#5000
0!
0E
0F
1=
#5500
1!
1E
1F
0=
10!
02"
0/!
0+!
1G
1&!
0,!
1(!
0*!
1/!
1<"
0="
0=!
1<!
1H!
0G!
0F!
11!
1I!
0H!
1G!
0I!
1J!
0J!
#6000
0!
0E
0F
1=
#6500
1!
1E
1F
0=
12"
1+!
0G
0&!
1,!
0(!
1*!
0/!
#7000
0!
0E
0F
1=
#7500
1!
1E
1F
0=
00!
02"
1/!
0+!
1G
1&!
0,!
1(!
0*!
0/!
#8000
0!
0E
0F
1=
#8500
1!
1E
1F
0=
12"
1+!
0G
0&!
1,!
0(!
1*!
1/!
#9000
0!
0E
0F
1=
#9500
1!
1E
1F
0=
10!
02"
0/!
0+!
1G
1&!
0,!
1(!
0*!
1/!
1="
1=!
1F!
01!
1H!
0G!
1I!
1J!
#10000
0!
0E
0F
1=
#10500
1!
1E
1F
0=
12"
1+!
0G
0&!
1,!
0(!
1*!
0/!
#11000
0!
0E
0F
1=
#11500
1!
1E
1F
0=
00!
02"
1/!
0+!
1G
1&!
0,!
1(!
0*!
0/!
#12000
0!
0E
0F
1=
#12500
1!
1E
1F
0=
12"
1+!
0G
0&!
1,!
0(!
1*!
1/!
#13000
0!
0E
0F
1=
#13500
1!
1E
1F
0=
10!
02"
0/!
0+!
1G
1&!
0,!
1(!
0*!
1/!
1;"
0<"
0="
0=!
0<!
1K!
0I!
0H!
1G!
0F!
11!
1L!
0K!
1I!
0G!
0J!
0L!
1J!
#14000
0!
0E
0F
1=
#14500
1!
1E
1F
0=
12"
1+!
0G
0&!
1,!
0(!
1*!
0/!
#15000
0!
0E
0F
1=
#15500
1!
1E
1F
0=
00!
02"
1/!
0+!
1G
1&!
0,!
1(!
0*!
0/!
#16000
0!
0E
0F
1=
#16500
1!
1E
1F
0=
12"
1+!
0G
0&!
1,!
0(!
1*!
1/!
#17000
0!
0E
0F
1=
#17500
1!
1E
1F
0=
10!
02"
0/!
0+!
1G
1&!
0,!
1(!
0*!
1/!
1="
1=!
1F!
01!
1G!
#18000
0!
0E
0F
1=
#18500
1!
1E
1F
0=
12"
1+!
0G
0&!
1,!
0(!
1*!
0/!
#19000
0!
0E
0F
1=
#19500
1!
1E
1F
0=
00!
02"
1/!
0+!
1G
1&!
0,!
1(!
0*!
0/!
#20000
0!
0E
0F
1=
#20500
1!
1E
1F
0=
12"
1+!
0G
0&!
1,!
0(!
1*!
1/!
#21000
0!
0E
0F
1=
#21500
1!
1E
1F
0=
10!
02"
0/!
0+!
1G
1&!
0,!
1(!
0*!
1/!
1<"
0="
0=!
1<!
1H!
0G!
0F!
11!
1K!
0I!
0H!
1G!
1L!
0K!
1I!
0J!
0L!
1J!
#22000
0!
0E
0F
1=
#22500
1!
1E
1F
0=
12"
1+!
0G
0&!
1,!
0(!
1*!
0/!
#23000
0!
0E
0F
1=
#23500
1!
1E
1F
0=
00!
02"
1/!
0+!
1G
1&!
0,!
1(!
0*!
0/!
#24000
0!
0E
0F
1=
#24500
1!
1E
1F
0=
12"
1+!
0G
0&!
1,!
0(!
1*!
1/!
#25000
0!
0E
0F
1=
#25500
1!
1E
1F
0=
10!
02"
0/!
0+!
1G
1&!
0,!
1(!
0*!
1/!
1="
1=!
1F!
01!
1H!
0G!
1K!
0I!
1L!
0J!
#26000
0!
0E
0F
1=
#26500
1!
1E
1F
0=
12"
1+!
0G
0&!
1,!
0(!
1*!
0/!
#27000
0!
0E
0F
1=
#27500
1!
1E
1F
0=
00!
02"
1/!
0+!
1G
1&!
0,!
1(!
0*!
0/!
#28000
0!
0E
0F
1=
#28500
1!
1E
1F
0=
12"
1+!
0G
0&!
1,!
0(!
1*!
1/!
#29000
0!
0E
0F
1=
#29500
1!
1E
1F
0=
10!
02"
0/!
0+!
1G
1&!
0,!
1(!
0*!
1/!
1:"
0;"
0<"
0="
0=!
0<!
1M!
0L!
0K!
1I!
0H!
1G!
0F!
11!
1N!
0M!
1L!
0I!
0G!
1J!
0N!
0J!
#30000
0!
0E
0F
1=
#30500
1!
1E
1F
0=
12"
1+!
0G
0&!
1,!
0(!
1*!
0/!
#31000
0!
0E
0F
1=
#31500
1!
1E
1F
0=
00!
02"
1/!
0+!
1G
1&!
0,!
1(!
0*!
0/!
#32000
0!
0E
0F
1=
#32500
1!
1E
1F
0=
12"
1+!
0G
0&!
1,!
0(!
1*!
1/!
#33000
0!
0E
0F
1=
#33500
1!
1E
1F
0=
10!
02"
0/!
0+!
1G
1&!
0,!
1(!
0*!
1/!
1="
1=!
1F!
01!
1G!
#34000
0!
0E
0F
1=
#34500
1!
1E
1F
0=
12"
1+!
0G
0&!
1,!
0(!
1*!
0/!
#35000
0!
0E
0F
1=
#35500
1!
1E
1F
0=
00!
02"
1/!
0+!
1G
1&!
0,!
1(!
0*!
0/!
#36000
0!
0E
0F
1=
#36500
1!
1E
1F
0=
12"
1+!
0G
0&!
1,!
0(!
1*!
1/!
#37000
0!
0E
0F
1=
#37500
1!
1E
1F
0=
10!
02"
0/!
0+!
1G
1&!
0,!
1(!
0*!
1/!
1<"
0="
0=!
1<!
1H!
0G!
0F!
11!
1I!
0H!
1G!
0I!
1J!
0J!
#38000
0!
0E
0F
1=
#38500
1!
1E
1F
0=
12"
1+!
0G
0&!
1,!
0(!
1*!
0/!
#39000
0!
0E
0F
1=
#39500
1!
1E
1F
0=
00!
02"
1/!
0+!
1G
1&!
0,!
1(!
0*!
0/!
#40000
0!
0E
0F
1=
#40500
1!
1E
1F
0=
12"
1+!
0G
0&!
1,!
0(!
1*!
1/!
#41000
0!
0E
0F
1=
#41500
1!
1E
1F
0=
10!
02"
0/!
0+!
1G
1&!
0,!
1(!
0*!
1/!
1="
1=!
1F!
01!
1H!
0G!
1I!
1J!
#42000
0!
0E
0F
1=
#42500
1!
1E
1F
0=
12"
1+!
0G
0&!
1,!
0(!
1*!
0/!
#43000
0!
0E
0F
1=
#43500
1!
1E
1F
0=
00!
02"
1/!
0+!
1G
1&!
0,!
1(!
0*!
0/!
#44000
0!
0E
0F
1=
#44500
1!
1E
1F
0=
12"
1+!
0G
0&!
1,!
0(!
1*!
1/!
#45000
0!
0E
0F
1=
#45500
1!
1E
1F
0=
10!
02"
0/!
0+!
1G
1&!
0,!
1(!
0*!
1/!
1;"
0<"
0="
0=!
0<!
1K!
0I!
0H!
1G!
0F!
11!
1M!
0L!
0K!
1I!
0G!
0J!
1N!
0M!
1L!
1J!
0N!
#46000
0!
0E
0F
1=
#46500
1!
1E
1F
0=
12"
1+!
0G
0&!
1,!
0(!
1*!
0/!
#47000
0!
0E
0F
1=
#47500
1!
1E
1F
0=
00!
02"
1/!
0+!
1G
1&!
0,!
1(!
0*!
0/!
#48000
0!
0E
0F
1=
#48500
1!
1E
1F
0=
12"
1+!
0G
0&!
1,!
0(!
1*!
1/!
#49000
0!
0E
0F
1=
#49500
1!
1E
1F
0=
10!
02"
0/!
0+!
1G
1&!
0,!
1(!
0*!
1/!
1="
1=!
1F!
01!
1G!
#50000
0!
0E
0F
1=
#50500
1!
1E
1F
0=
12"
1+!
0G
0&!
1,!
0(!
1*!
0/!
#51000
0!
0E
0F
1=
#51500
1!
1E
1F
0=
00!
02"
1/!
0+!
1G
1&!
0,!
1(!
0*!
0/!
#52000
0!
0E
0F
1=
#52500
1!
1E
1F
0=
12"
1+!
0G
0&!
1,!
0(!
1*!
1/!
#53000
0!
0E
0F
1=
#53500
1!
1E
1F
0=
10!
02"
0/!
0+!
1G
1&!
0,!
1(!
0*!
1/!
1<"
0="
0=!
1<!
1H!
0G!
0F!
11!
1K!
0I!
0H!
1G!
1M!
0L!
0K!
1I!
0J!
1N!
0M!
1L!
1J!
0N!
#54000
0!
0E
0F
1=
#54500
1!
1E
1F
0=
12"
1+!
0G
0&!
1,!
0(!
1*!
0/!
#55000
0!
0E
0F
1=
#55500
1!
1E
1F
0=
00!
02"
1/!
0+!
1G
1&!
0,!
1(!
0*!
0/!
#56000
0!
0E
0F
1=
#56500
1!
1E
1F
0=
12"
1+!
0G
0&!
1,!
0(!
1*!
1/!
#57000
0!
0E
0F
1=
#57500
1!
1E
1F
0=
10!
02"
0/!
0+!
1G
1&!
0,!
1(!
0*!
1/!
1="
1=!
1F!
01!
1P!
1H!
0G!
1K!
0I!
1M!
0L!
0J!
1N!
#58000
0!
0E
0F
1=
#58500
1!
1E
1F
0=
12"
1+!
0G
0&!
1,!
0(!
1*!
0/!
#59000
0!
0E
0F
1=
#59500
1!
1E
1F
0=
00!
02"
1/!
0+!
1G
1&!
0,!
1(!
0*!
0/!
#60000
0!
0E
0F
1=
#60500
1!
1E
1F
0=
12"
1+!
0G
0&!
1,!
0(!
1*!
1/!
#61000
0!
0E
0F
1=
#61500
1!
1E
1F
0=
10!
02"
0/!
0+!
1G
1&!
0,!
1(!
0*!
1/!
19"
0:"
0;"
0<"
0="
0=!
0<!
12!
0N!
0M!
1L!
0P!
0K!
1I!
0H!
1G!
0F!
11!
13!
02!
1N!
0L!
0I!
0G!
1J!
03!
0J!
#62000
0!
0E
0F
1=
#62500
1!
1E
1F
0=
12"
1+!
0G
0&!
1,!
0(!
1*!
0/!
#63000
0!
0E
0F
1=
#63500
1!
1E
1F
0=
00!
02"
1/!
0+!
1G
1&!
0,!
1(!
0*!
0/!
#64000
0!
0E
0F
1=
#64500
1!
1E
1F
0=
12"
1+!
0G
0&!
1,!
0(!
1*!
1/!
#65000
0!
0E
0F
1=
#65500
1!
1E
1F
0=
10!
02"
0/!
0+!
1G
1&!
0,!
1(!
0*!
1/!
1="
1=!
1F!
01!
1G!
#66000
0!
0E
0F
1=
#66500
1!
1E
1F
0=
12"
1+!
0G
0&!
1,!
0(!
1*!
0/!
#67000
0!
0E
0F
1=
#67500
1!
1E
1F
0=
00!
02"
1/!
0+!
1G
1&!
0,!
1(!
0*!
0/!
#68000
0!
0E
0F
1=
#68500
1!
1E
1F
0=
12"
1+!
0G
0&!
1,!
0(!
1*!
1/!
#69000
0!
0E
0F
1=
#69500
1!
1E
1F
0=
10!
02"
0/!
0+!
1G
1&!
0,!
1(!
0*!
1/!
1<"
0="
0=!
1<!
1H!
0G!
0F!
11!
1I!
0H!
1G!
0I!
1J!
0J!
#70000
0!
0E
0F
1=
#70500
1!
1E
1F
0=
12"
1+!
0G
0&!
1,!
0(!
1*!
0/!
#71000
0!
0E
0F
1=
#71500
1!
1E
1F
0=
00!
02"
1/!
0+!
1G
1&!
0,!
1(!
0*!
0/!
#72000
0!
0E
0F
1=
#72500
1!
1E
1F
0=
12"
1+!
0G
0&!
1,!
0(!
1*!
1/!
#73000
0!
0E
0F
1=
#73500
1!
1E
1F
0=
10!
02"
0/!
0+!
1G
1&!
0,!
1(!
0*!
1/!
1="
1=!
1F!
01!
1H!
0G!
1I!
1J!
#74000
0!
0E
0F
1=
#74500
1!
1E
1F
0=
12"
1+!
0G
0&!
1,!
0(!
1*!
0/!
#75000
0!
0E
0F
1=
#75500
1!
1E
1F
0=
00!
02"
1/!
0+!
1G
1&!
0,!
1(!
0*!
0/!
#76000
0!
0E
0F
1=
#76500
1!
1E
1F
0=
12"
1+!
0G
0&!
1,!
0(!
1*!
1/!
#77000
0!
0E
0F
1=
#77500
1!
1E
1F
0=
10!
02"
0/!
0+!
1G
1&!
0,!
1(!
0*!
1/!
1;"
0<"
0="
0=!
0<!
1K!
0I!
0H!
1G!
0F!
11!
1L!
0K!
1I!
0G!
0J!
0L!
1J!
#78000
0!
0E
0F
1=
#78500
1!
1E
1F
0=
12"
1+!
0G
0&!
1,!
0(!
1*!
0/!
#79000
0!
0E
0F
1=
#79500
1!
1E
1F
0=
00!
02"
1/!
0+!
1G
1&!
0,!
1(!
0*!
0/!
#80000
0!
0E
0F
1=
#80500
1!
1E
1F
0=
12"
1+!
0G
0&!
1,!
0(!
1*!
1/!
#81000
0!
0E
0F
1=
#81500
1!
1E
1F
0=
10!
02"
0/!
0+!
1G
1&!
0,!
1(!
0*!
1/!
1="
1=!
1F!
01!
1G!
#82000
0!
0E
0F
1=
#82500
1!
1E
1F
0=
12"
1+!
0G
0&!
1,!
0(!
1*!
0/!
#83000
0!
0E
0F
1=
#83500
1!
1E
1F
0=
00!
02"
1/!
0+!
1G
1&!
0,!
1(!
0*!
0/!
#84000
0!
0E
0F
1=
#84500
1!
1E
1F
0=
12"
1+!
0G
0&!
1,!
0(!
1*!
1/!
#85000
0!
0E
0F
1=
#85500
1!
1E
1F
0=
10!
02"
0/!
0+!
1G
1&!
0,!
1(!
0*!
1/!
1<"
0="
0=!
1<!
1H!
0G!
0F!
11!
1K!
0I!
0H!
1G!
1L!
0K!
1I!
0J!
0L!
1J!
#86000
0!
0E
0F
1=
#86500
1!
1E
1F
0=
12"
1+!
0G
0&!
1,!
0(!
1*!
0/!
#87000
0!
0E
0F
1=
#87500
1!
1E
1F
0=
00!
02"
1/!
0+!
1G
1&!
0,!
1(!
0*!
0/!
#88000
0!
0E
0F
1=
#88500
1!
1E
1F
0=
12"
1+!
0G
0&!
1,!
0(!
1*!
1/!
#89000
0!
0E
0F
1=
#89500
1!
1E
1F
0=
10!
02"
0/!
0+!
1G
1&!
0,!
1(!
0*!
1/!
1="
1=!
1F!
01!
1H!
0G!
1K!
0I!
1L!
0J!
#90000
0!
0E
0F
1=
#90500
1!
1E
1F
0=
12"
1+!
0G
0&!
1,!
0(!
1*!
0/!
#91000
0!
0E
0F
1=
#91500
1!
1E
1F
0=
00!
02"
1/!
0+!
1G
1&!
0,!
1(!
0*!
0/!
#92000
0!
0E
0F
1=
#92500
1!
1E
1F
0=
12"
1+!
0G
0&!
1,!
0(!
1*!
1/!
#93000
0!
0E
0F
1=
#93500
1!
1E
1F
0=
10!
02"
0/!
0+!
1G
1&!
0,!
1(!
0*!
1/!
1:"
0;"
0<"
0="
0=!
0<!
1M!
0L!
0K!
1I!
0H!
1G!
0F!
11!
12!
0N!
0M!
1L!
0I!
0G!
1J!
13!
02!
1N!
0J!
03!
#94000
0!
0E
0F
1=
#94500
1!
1E
1F
0=
12"
1+!
0G
0&!
1,!
0(!
1*!
0/!
#95000
0!
0E
0F
1=
#95500
1!
1E
1F
0=
00!
02"
1/!
0+!
1G
1&!
0,!
1(!
0*!
0/!
#96000
0!
0E
0F
1=
#96500
1!
1E
1F
0=
12"
1+!
0G
0&!
1,!
0(!
1*!
1/!
#97000
0!
0E
0F
1=
#97500
1!
1E
1F
0=
10!
02"
0/!
0+!
1G
1&!
0,!
1(!
0*!
1/!
1="
1=!
1F!
01!
1G!
#98000
0!
0E
0F
1=
#98500
1!
1E
1F
0=
12"
1+!
0G
0&!
1,!
0(!
1*!
0/!
#99000
0!
0E
0F
1=
#99500
1!
1E
1F
0=
00!
02"
1/!
0+!
1G
1&!
0,!
1(!
0*!
0/!
#100000
0!
0E
0F
1=
#100500
1!
1E
1F
0=
12"
1+!
0G
0&!
1,!
0(!
1*!
1/!
#101000
0!
0E
0F
1=
#101500
1!
1E
1F
0=
10!
02"
0/!
0+!
1G
1&!
0,!
1(!
0*!
1/!
1<"
0="
0=!
1<!
1H!
0G!
0F!
11!
1I!
0H!
1G!
0I!
1J!
0J!
#102000
0!
0E
0F
1=
#102500
1!
1E
1F
0=
12"
1+!
0G
0&!
1,!
0(!
1*!
0/!
#103000
0!
0E
0F
1=
#103500
1!
1E
1F
0=
00!
02"
1/!
0+!
1G
1&!
0,!
1(!
0*!
0/!
#104000
0!
0E
0F
1=
#104500
1!
1E
1F
0=
12"
1+!
0G
0&!
1,!
0(!
1*!
1/!
#105000
0!
0E
0F
1=
#105500
1!
1E
1F
0=
10!
02"
0/!
0+!
1G
1&!
0,!
1(!
0*!
1/!
1="
1=!
1F!
01!
1H!
0G!
1I!
1J!
#106000
0!
0E
0F
1=
#106500
1!
1E
1F
0=
12"
1+!
0G
0&!
1,!
0(!
1*!
0/!
#107000
0!
0E
0F
1=
#107500
1!
1E
1F
0=
00!
02"
1/!
0+!
1G
1&!
0,!
1(!
0*!
0/!
